{
    "5" : { //State ID
        "1" : { //Group Index (Every group must be 3 lines long!)
            "1" : "My name is Colgate!",
            "2" : "Welcome to PonyVille!",
            "3" : ""
        }
    }
}