{
    "5" : { //State ID
        "1" : { //Group Index (Every group must be 3 lines long!)
            "1" : "This is the next area!",
            "2" : "Unfortunately, it is not developed yet.",
            "3" : "Check back soon!"
        }
    }
}